[
    "index.md",
    "nyt.md",
    "nyt-censos.md",
    "nyt-eleicoes.md",
    "nyt-mapas.md",
    "nyt-todos.md",
    "nyt-exemplo.md",
    "frugais.md",
    "3passos.md",
    "reutilizar.md",
    "opensource.md",
    "viz1.md",
    "tools-mapas.md",
    "tools-stat.md",
    "tools-timelines.md",
    "auto-reuse.md",
    "eventos-repetidos.md",
    "templates.md",
    "templatespub.md",
    "templatesgithub.md",
    "estruturas.md",
    "estruturas-tempo.md",
    "estruturas-org.md",
    "estruturas-mesmolocal.md",
    "estruturas-tools.md",
    "estruturas-kenya.md",
    "estruturas-kenya-refine.md",
    "estruturas-kenya-final.md",
    "estruturas-redacao.md",
    "estruturas-produto.md",
    "estruturas-escolas.md",
    "estruturas-salarios.md",
    "estruturas-china.md",
    "generatione1.md",
    "generatione2.md",
    "redes.md",
    "redes-maodeobra.md",
    "redes-maodeobra2.md",
    "redes-encontro.md",
    "redes-ligacoes.md",
    "wrapup.md",
    "thanks.md"
]
